…
Airbnb is most commonly used for travel purposes, i.e., as an alternative to traditional hotels. We only want to include listings in our regression analysis that are intended for travel purposes:

What are the most common values for the variable minimum_nights?

# make sure proportions wont be shown in scientific notation
  options(scipen=999)

listings %>%
  # prepare the count by minimum nights
  group_by(minimum_nights) %>%
  count() %>%
  # arrange so categories with highest ns appear on top
  arrange(desc(n))

## # A tibble: 67 × 2
## # Groups:   minimum_nights [67]
##    minimum_nights     n
##             <dbl> <int>
##  1              1  6025
##  2              2  5804
##  3              3  4832
##  4              5  1786
##  5              4  1746
##  6              7  1031
##  7             10   462
##  8             30   389
##  9             15   327
## 10              6   310
## # … with 57 more rows
…
